{
  "project_info": {
    "project_number": "470464216125",
    "firebase_url": "https://latinpotterheads-e784d.firebaseio.com",
    "project_id": "latinpotterheads-e784d",
    "storage_bucket": "latinpotterheads-e784d.appspot.com"
  },
  "client": [
    {
      "client_info": {
        "mobilesdk_app_id": "1:470464216125:android:fb4d09eba03119815f7e54",
        "android_client_info": {
          "package_name": "com.example.latinpotterheads"
        }
      },
      "oauth_client": [
        {
          "client_id": "470464216125-rj2tkrrbvu6hmskp2u8v5420lkhl5heb.apps.googleusercontent.com",
          "client_type": 1,
          "android_info": {
            "package_name": "com.example.latinpotterheads",
            "certificate_hash": "5eebd59d3165307baa813b3bb6e3e716e9a520d5"
          }
        },
        {
          "client_id": "470464216125-vd8o9afhh3rh6ss7ulfeou2s7q9ridp4.apps.googleusercontent.com",
          "client_type": 3
        }
      ],
      "api_key": [
        {
          "current_key": "AIzaSyBnGHfX1we6xheg8PYjuxAI2d2IH64VdPw"
        }
      ],
      "services": {
        "appinvite_service": {
          "other_platform_oauth_client": [
            {
              "client_id": "470464216125-vd8o9afhh3rh6ss7ulfeou2s7q9ridp4.apps.googleusercontent.com",
              "client_type": 3
            }
          ]
        }
      }
    }
  ],
  "configuration_version": "1"
}